[
    {
      "title": "Al Humaidi Shopping center",
      "description": "",
        "icon": "../assets/shopping/Al Humaidi Shopping center/index.jpeg",
        "page":"HotelView",
        "rating":3,
        "location":{
            "lat":19.6242886,
            "lng":57.6311821
        },
        "phone": "",
        "email" : "",      
        "gallery":[
            {"icon" : "..assets/shopping/Al Humaidi Shopping center/CZ5TpUwW0AEw8O2.jpg"},
            {"icon" : "../assets/shopping/Al Humaidi Shopping center/index.jpeg"}
      ]
    },
    {
      "title": "Duqm South",
      "description": "",
        "icon": "../assets/shopping/duqm south/14902832_1230331013693899_5229192528047398103_o.jpg",
        "page":"HotelView",
        "rating":3,
        "location":{
            "lat":19.6266824,
            "lng":57.6325674
        },
        "phone": "",
        "email" : "",      
        "gallery":[
           {"icon" : "../assets/shopping/duqm south/14902832_1230331013693899_5229192528047398103_o.jpg"},
           {"icon" : "../assets/shopping/duqm south/14882198_1230331370360530_5585651200289233007_o.jpg"},
           {"icon" : "../assets/shopping/duqm south/14889819_1230331377027196_2411556627889525557_o.jpg"},
           {"icon" : "../assets/shopping/duqm south/14976372_1230331373693863_4597276032190033064_o.jpg"},
           {"icon" : "../assets/shopping/duqm south/14882245_1230331397027194_6646292073781532603_o.jpg"}
      ]
    }
]